106.198.25.241,Request URL http://wildseed.blazewebtech.com/certificates-of-analysis/%E2%80%99/wp-content/uploads/2019/11/Alpine-CBG-COA.pdf%E2%80%99,
106.198.25.241,Request URL http://wildseed.blazewebtech.com/certificates-of-analysis/%E2%80%99/wp-content/uploads/2019/11/Alpine-CBG-COA.pdf%E2%80%99,
106.198.25.241,Request URL http://wildseed.blazewebtech.com/certificates-of-analysis/%E2%80%99/wp-content/uploads/2019/11/Alpine-CBG-COA.pdf%E2%80%99,
106.198.25.241,Request URL http://wildseed.blazewebtech.com/certificates-of-analysis/%E2%80%99/wp-content/uploads/2019/11/Alpine-CBG-COA.pdf%E2%80%99,
